﻿<?xml version="1.0" encoding="UTF-8"?>
<TestRun id="5974f42c-c4df-4e64-abac-3dcad50c4ce5" name="Antoine@ANTOINE 2014-01-11 15:20:03" runUser="ANTOINE\Antoine" xmlns="http://microsoft.com/schemas/VisualStudio/TeamTest/2010">
  <TestSettings name="Local" id="a5781171-2692-4e4a-8d9d-6bff68024f3b">
    <Description>These are default test settings for a local test run.</Description>
    <Deployment enabled="false" runDeploymentRoot="Antoine_ANTOINE 2014-01-11 15_20_03">
      <DeploymentItem filename="D:\Google Drive\1BSC3\SE\acortis-duplicate-file-find-and-delete-se-project-1-4d0228510967\DuplicateFileFindAndDelete\bin\Debug\DuplicateFileFindAndDelete.exe" />
      <DeploymentItem filename="D:\Google Drive\1BSC3\SE\acortis-duplicate-file-find-and-delete-se-project-1-4d0228510967\FileFindAndDeleteLibrary\bin\Debug\FileFindAndDeleteLibrary.dll" />
    </Deployment>
    <Execution>
      <TestTypeSpecific />
      <AgentRule name="Execution Agents">
      </AgentRule>
    </Execution>
  </TestSettings>
  <Times creation="2014-01-11T15:20:03.0159031+01:00" queuing="2014-01-11T15:20:04.1990546+01:00" start="2014-01-11T15:20:04.2080559+01:00" finish="2014-01-11T15:20:04.8431367+01:00" />
  <ResultSummary outcome="Failed">
    <Counters total="1" executed="1" error="0" failed="1" timeout="0" aborted="0" inconclusive="0" passedButRunAborted="0" notRunnable="0" notExecuted="0" disconnected="0" warning="0" passed="0" completed="0" inProgress="0" pending="0" />
  </ResultSummary>
  <TestDefinitions>
    <UnitTest name="RadixSortAuxTest" storage="d:\google drive\1bsc3\se\acortis-duplicate-file-find-and-delete-se-project-1-4d0228510967\testingproject\bin\debug\testingproject.dll" id="36a0602d-c4ba-5b21-e695-520df877e345">
      <Execution id="c9a87e54-3517-421c-b701-8a8b761116e4" />
      <TestMethod codeBase="D:/Google Drive/1BSC3/SE/acortis-duplicate-file-find-and-delete-se-project-1-4d0228510967/TestingProject/bin/Debug/TestingProject.DLL" adapterTypeName="Microsoft.VisualStudio.TestTools.TestTypes.Unit.UnitTestAdapter, Microsoft.VisualStudio.QualityTools.Tips.UnitTest.Adapter, Version=10.0.0.0, Culture=neutral, PublicKeyToken=b03f5f7f11d50a3a" className="TestingProject.RadixTest, TestingProject, Version=1.0.0.0, Culture=neutral, PublicKeyToken=null" name="RadixSortAuxTest" />
    </UnitTest>
  </TestDefinitions>
  <TestLists>
    <TestList name="Results Not in a List" id="8c84fa94-04c1-424b-9868-57a2d4851a1d" />
    <TestList name="All Loaded Results" id="19431567-8539-422a-85d7-44ee4e166bda" />
  </TestLists>
  <TestEntries>
    <TestEntry testId="36a0602d-c4ba-5b21-e695-520df877e345" executionId="c9a87e54-3517-421c-b701-8a8b761116e4" testListId="8c84fa94-04c1-424b-9868-57a2d4851a1d" />
  </TestEntries>
  <Results>
    <UnitTestResult executionId="c9a87e54-3517-421c-b701-8a8b761116e4" testId="36a0602d-c4ba-5b21-e695-520df877e345" testName="RadixSortAuxTest" computerName="ANTOINE" duration="00:00:00.0439075" startTime="2014-01-11T15:20:04.2090556+01:00" endTime="2014-01-11T15:20:04.8301351+01:00" testType="13cdc9d9-ddb5-4fa4-a97d-d965ccfc6d4b" outcome="Failed" testListId="8c84fa94-04c1-424b-9868-57a2d4851a1d" relativeResultsDirectory="c9a87e54-3517-421c-b701-8a8b761116e4">
      <Output>
        <ErrorInfo>
          <Message>Test method TestingProject.RadixTest.RadixSortAuxTest threw exception: 
System.IndexOutOfRangeException: Index was outside the bounds of the array.</Message>
          <StackTrace>    at TestingProject.RadixTest.RadixSortAuxTest() in D:\Google Drive\1BSC3\SE\acortis-duplicate-file-find-and-delete-se-project-1-4d0228510967\TestingProject\RadixTest.cs:line 75
</StackTrace>
        </ErrorInfo>
      </Output>
    </UnitTestResult>
  </Results>
</TestRun>