﻿<?xml version="1.0" encoding="UTF-8"?>
<TestRun id="feda7267-d1ca-4202-8a2b-b23b45a4bbb0" name="Antoine@ANTOINE 2014-01-11 16:19:51" runUser="ANTOINE\Antoine" xmlns="http://microsoft.com/schemas/VisualStudio/TeamTest/2010">
  <TestSettings name="Local" id="a5781171-2692-4e4a-8d9d-6bff68024f3b">
    <Description>These are default test settings for a local test run.</Description>
    <Deployment enabled="false" runDeploymentRoot="Antoine_ANTOINE 2014-01-11 16_19_51">
      <DeploymentItem filename="D:\Google Drive\1BSC3\SE\acortis-duplicate-file-find-and-delete-se-project-1-4d0228510967\DuplicateFileFindAndDelete\bin\Debug\DuplicateFileFindAndDelete.exe" />
      <DeploymentItem filename="D:\Google Drive\1BSC3\SE\acortis-duplicate-file-find-and-delete-se-project-1-4d0228510967\FileFindAndDeleteLibrary\bin\Debug\FileFindAndDeleteLibrary.dll" />
    </Deployment>
    <Execution>
      <TestTypeSpecific />
      <AgentRule name="Execution Agents">
      </AgentRule>
    </Execution>
  </TestSettings>
  <Times creation="2014-01-11T16:19:51.0822649+01:00" queuing="2014-01-11T16:19:52.8234870+01:00" start="2014-01-11T16:19:52.8364883+01:00" finish="2014-01-11T16:19:53.0945209+01:00" />
  <ResultSummary outcome="Failed">
    <Counters total="1" executed="1" error="0" failed="1" timeout="0" aborted="0" inconclusive="0" passedButRunAborted="0" notRunnable="0" notExecuted="0" disconnected="0" warning="0" passed="0" completed="0" inProgress="0" pending="0" />
    <RunInfos>
      <RunInfo computerName="ANTOINE" outcome="Warning" timestamp="2014-01-11T16:19:52.8234870+01:00">
        <Text>Deployment is currently disabled. The deployment item 'FileFindAndDeleteLibrary.dll' on test 'TestingProject.FindAndDeleteTest.GetFilesFromDirectoryTest' was not deployed.</Text>
      </RunInfo>
      <RunInfo computerName="ANTOINE" outcome="Warning" timestamp="2014-01-11T16:19:52.8234870+01:00">
        <Text>Deployment is currently disabled. The deployment item 'TestingProject\data.csv' on test 'TestingProject.FindAndDeleteTest.GetFilesFromDirectoryTest' was not deployed.</Text>
      </RunInfo>
    </RunInfos>
  </ResultSummary>
  <TestDefinitions>
    <UnitTest name="GetFilesFromDirectoryTest" storage="d:\google drive\1bsc3\se\acortis-duplicate-file-find-and-delete-se-project-1-4d0228510967\testingproject\bin\debug\testingproject.dll" id="c49d5701-0be3-c35c-6ec7-9199997f4d8e">
      <DeploymentItems>
        <DeploymentItem filename="FileFindAndDeleteLibrary.dll" />
        <DeploymentItem filename="TestingProject\data.csv" />
      </DeploymentItems>
      <Execution id="24a6b252-ee4c-4673-beb5-90dd4ab96eb3" />
      <TestMethod codeBase="D:/Google Drive/1BSC3/SE/acortis-duplicate-file-find-and-delete-se-project-1-4d0228510967/TestingProject/bin/Debug/TestingProject.DLL" adapterTypeName="Microsoft.VisualStudio.TestTools.TestTypes.Unit.UnitTestAdapter, Microsoft.VisualStudio.QualityTools.Tips.UnitTest.Adapter, Version=10.0.0.0, Culture=neutral, PublicKeyToken=b03f5f7f11d50a3a" className="TestingProject.FindAndDeleteTest, TestingProject, Version=1.0.0.0, Culture=neutral, PublicKeyToken=null" name="GetFilesFromDirectoryTest" />
      <DataSource connectionString="|DataDirectory|\data.csv" providerInvariantName="Microsoft.VisualStudio.TestTools.DataSource.CSV" tableName="data#csv" />
    </UnitTest>
  </TestDefinitions>
  <TestLists>
    <TestList name="Results Not in a List" id="8c84fa94-04c1-424b-9868-57a2d4851a1d" />
    <TestList name="All Loaded Results" id="19431567-8539-422a-85d7-44ee4e166bda" />
  </TestLists>
  <TestEntries>
    <TestEntry testId="c49d5701-0be3-c35c-6ec7-9199997f4d8e" executionId="24a6b252-ee4c-4673-beb5-90dd4ab96eb3" testListId="8c84fa94-04c1-424b-9868-57a2d4851a1d" />
  </TestEntries>
  <Results>
    <UnitTestResult executionId="24a6b252-ee4c-4673-beb5-90dd4ab96eb3" testId="c49d5701-0be3-c35c-6ec7-9199997f4d8e" testName="GetFilesFromDirectoryTest" computerName="ANTOINE" startTime="2014-01-11T16:19:52.8394893+01:00" endTime="2014-01-11T16:19:53.0825196+01:00" testType="13cdc9d9-ddb5-4fa4-a97d-d965ccfc6d4b" outcome="Failed" testListId="8c84fa94-04c1-424b-9868-57a2d4851a1d" relativeResultsDirectory="24a6b252-ee4c-4673-beb5-90dd4ab96eb3" resultType="DataDrivenTest">
      <Output>
        <ErrorInfo>
          <Message>The unit test adapter failed to connect to the data source or to read the data. For more information on troubleshooting this error, see "Troubleshooting Data-Driven Unit Tests" (http://go.microsoft.com/fwlink/?LinkId=62412) in the MSDN Library.
Error details: The Microsoft Jet database engine could not find the object 'data.csv'.  Make sure the object exists and that you spell its name and the path name correctly.</Message>
        </ErrorInfo>
      </Output>
    </UnitTestResult>
  </Results>
</TestRun>