﻿<?xml version="1.0" encoding="UTF-8"?>
<TestRun id="c399a620-2cf0-40a8-97c4-4f04e6e061dc" name="Antoine@ANTOINE 2014-01-09 23:34:48" runUser="ANTOINE\Antoine" xmlns="http://microsoft.com/schemas/VisualStudio/TeamTest/2010">
  <TestSettings name="Local" id="a5781171-2692-4e4a-8d9d-6bff68024f3b">
    <Description>These are default test settings for a local test run.</Description>
    <Deployment enabled="false" runDeploymentRoot="Antoine_ANTOINE 2014-01-09 23_34_48">
      <DeploymentItem filename="D:\Google Drive\1BSC3\SE\acortis-duplicate-file-find-and-delete-se-project-1-4d0228510967\DuplicateFileFindAndDelete\bin\Debug\DuplicateFileFindAndDelete.exe" />
      <DeploymentItem filename="D:\Google Drive\1BSC3\SE\acortis-duplicate-file-find-and-delete-se-project-1-4d0228510967\FileFindAndDeleteLibrary\bin\Debug\FileFindAndDeleteLibrary.dll" />
    </Deployment>
    <Execution>
      <TestTypeSpecific />
      <AgentRule name="Execution Agents">
      </AgentRule>
    </Execution>
  </TestSettings>
  <Times creation="2014-01-09T23:34:48.5828587+01:00" queuing="2014-01-09T23:34:49.9670344+01:00" start="2014-01-09T23:34:49.9720358+01:00" finish="2014-01-09T23:34:50.4791001+01:00" />
  <ResultSummary outcome="Completed">
    <Counters total="1" executed="1" passed="1" error="0" failed="0" timeout="0" aborted="0" inconclusive="0" passedButRunAborted="0" notRunnable="0" notExecuted="0" disconnected="0" warning="0" completed="0" inProgress="0" pending="0" />
  </ResultSummary>
  <TestDefinitions>
    <UnitTest name="AddFileIconTest" storage="d:\google drive\1bsc3\se\acortis-duplicate-file-find-and-delete-se-project-1-4d0228510967\testingproject\bin\debug\testingproject.dll" id="a06121d4-7b85-9f85-aa3c-8c9e8fb33458">
      <Execution id="f4be4f0a-9a26-4589-b532-520012e23e95" />
      <TestMethod codeBase="D:/Google Drive/1BSC3/SE/acortis-duplicate-file-find-and-delete-se-project-1-4d0228510967/TestingProject/bin/Debug/TestingProject.DLL" adapterTypeName="Microsoft.VisualStudio.TestTools.TestTypes.Unit.UnitTestAdapter, Microsoft.VisualStudio.QualityTools.Tips.UnitTest.Adapter, Version=10.0.0.0, Culture=neutral, PublicKeyToken=b03f5f7f11d50a3a" className="TestingProject.IconListManagerTest, TestingProject, Version=1.0.0.0, Culture=neutral, PublicKeyToken=null" name="AddFileIconTest" />
    </UnitTest>
  </TestDefinitions>
  <TestLists>
    <TestList name="Results Not in a List" id="8c84fa94-04c1-424b-9868-57a2d4851a1d" />
    <TestList name="All Loaded Results" id="19431567-8539-422a-85d7-44ee4e166bda" />
  </TestLists>
  <TestEntries>
    <TestEntry testId="a06121d4-7b85-9f85-aa3c-8c9e8fb33458" executionId="f4be4f0a-9a26-4589-b532-520012e23e95" testListId="8c84fa94-04c1-424b-9868-57a2d4851a1d" />
  </TestEntries>
  <Results>
    <UnitTestResult executionId="f4be4f0a-9a26-4589-b532-520012e23e95" testId="a06121d4-7b85-9f85-aa3c-8c9e8fb33458" testName="AddFileIconTest" computerName="ANTOINE" duration="00:00:00.2793821" startTime="2014-01-09T23:34:49.9810364+01:00" endTime="2014-01-09T23:34:50.4510966+01:00" testType="13cdc9d9-ddb5-4fa4-a97d-d965ccfc6d4b" outcome="Passed" testListId="8c84fa94-04c1-424b-9868-57a2d4851a1d" relativeResultsDirectory="f4be4f0a-9a26-4589-b532-520012e23e95">
    </UnitTestResult>
  </Results>
</TestRun>